^C:\USERS\ZIMA\DESKTOP\VISUAL\ZADANIE2\ZADANIE2\DEBUG\.NETFRAMEWORK,VERSION=V4.5.2.ASSEMBLYATTRIBUTES.OBJ|C:\USERS\ZIMA\DESKTOP\VISUAL\ZADANIE2\ZADANIE2\DEBUG\MYFORM.OBJ
C:\USERS\ZIMA\DESKTOP\VISUAL\ZADANIE2\DEBUG\ZADANIE2.EXE
C:\USERS\ZIMA\DESKTOP\VISUAL\ZADANIE2\DEBUG\ZADANIE2.PDB
^C:\USERS\ZIMA\DESKTOP\VISUAL\ZADANIE3\ZADANIE2\DEBUG\.NETFRAMEWORK,VERSION=V4.5.2.ASSEMBLYATTRIBUTES.OBJ|C:\USERS\ZIMA\DESKTOP\VISUAL\ZADANIE3\ZADANIE2\DEBUG\MYFORM.OBJ|C:\USERS\ZIMA\DESKTOP\VISUAL\ZADANIE3\ZADANIE2\DEBUG\MYFORM1.OBJ
C:\USERS\ZIMA\DESKTOP\VISUAL\ZADANIE3\DEBUG\ZADANIE2.EXE
C:\USERS\ZIMA\DESKTOP\VISUAL\ZADANIE3\DEBUG\ZADANIE2.PDB
