^C:\USERS\ZIMA\DESKTOP\VISUAL\ZADANIE2\ZADANIE2\DEBUG\.NETFRAMEWORK,VERSION=V4.5.2.ASSEMBLYATTRIBUTES.OBJ|C:\USERS\ZIMA\DESKTOP\VISUAL\ZADANIE2\ZADANIE2\DEBUG\MYFORM.OBJ
/OUT:"C:\USERS\ZIMA\DESKTOP\VISUAL\ZADANIE2\DEBUG\ZADANIE2.EXE" /INCREMENTAL /NOLOGO /ASSEMBLYRESOURCE:DEBUG\ZADANIE2.MYFORM.RESOURCES /MANIFEST /MANIFESTUAC:"level='asInvoker' uiAccess='false'" /manifest:embed /DEBUG:FASTLINK /PDB:"C:\USERS\ZIMA\DESKTOP\VISUAL\ZADANIE2\DEBUG\ZADANIE2.PDB" /ASSEMBLYDEBUG /SUBSYSTEM:WINDOWS /TLBID:1 /ENTRY:"Main" /DYNAMICBASE /FIXED:NO /NXCOMPAT /MACHINE:X86 DEBUG\MYFORM.OBJ"DEBUG\.NETFRAMEWORK,VERSION=V4.5.2.ASSEMBLYATTRIBUTES.OBJ"
^C:\USERS\ZIMA\DESKTOP\VISUAL\ZADANIE3\ZADANIE2\DEBUG\.NETFRAMEWORK,VERSION=V4.5.2.ASSEMBLYATTRIBUTES.OBJ|C:\USERS\ZIMA\DESKTOP\VISUAL\ZADANIE3\ZADANIE2\DEBUG\MYFORM.OBJ|C:\USERS\ZIMA\DESKTOP\VISUAL\ZADANIE3\ZADANIE2\DEBUG\MYFORM1.OBJ
/OUT:"C:\USERS\ZIMA\DESKTOP\VISUAL\ZADANIE3\DEBUG\ZADANIE2.EXE" /INCREMENTAL /NOLOGO /ASSEMBLYRESOURCE:DEBUG\ZADANIE2.MYFORM.RESOURCES /ASSEMBLYRESOURCE:DEBUG\ZADANIE2.MYFORM1.RESOURCES /MANIFEST /MANIFESTUAC:"level='asInvoker' uiAccess='false'" /manifest:embed /DEBUG:FASTLINK /PDB:"C:\USERS\ZIMA\DESKTOP\VISUAL\ZADANIE3\DEBUG\ZADANIE2.PDB" /ASSEMBLYDEBUG /SUBSYSTEM:WINDOWS /TLBID:1 /ENTRY:"Main" /DYNAMICBASE /FIXED:NO /NXCOMPAT /MACHINE:X86 DEBUG\MYFORM.OBJDEBUG\MYFORM1.OBJ"DEBUG\.NETFRAMEWORK,VERSION=V4.5.2.ASSEMBLYATTRIBUTES.OBJ"
