^C:\Users\zima\Desktop\visual\zadanie2\zadanie2\zadanie2.vcxproj
C:\Users\zima\Desktop\visual\zadanie2\zadanie2\Debug\zadanie2.MyForm.resources
^C:\Users\zima\Desktop\visual\zadanie2\zadanie2\zadanie2.vcxproj
C:\Users\zima\Desktop\visual\zadanie2\zadanie2\Debug\zadanie2.MyForm.resources
^C:\Users\zima\Desktop\visual\zadanie2\zadanie2\zadanie2.vcxproj
C:\Users\zima\Desktop\visual\zadanie2\zadanie2\Debug\zadanie2.MyForm.resources
^C:\Users\zima\Desktop\visual\zadanie2\zadanie2\zadanie2.vcxproj
C:\Users\zima\Desktop\visual\zadanie2\zadanie2\Debug\zadanie2.MyForm.resources
^C:\Users\zima\Desktop\visual\zadanie2\zadanie2\zadanie2.vcxproj
C:\Users\zima\Desktop\visual\zadanie2\zadanie2\Debug\zadanie2.MyForm.resources
^C:\Users\zima\Desktop\visual\zadanie2\zadanie2\zadanie2.vcxproj
C:\Users\zima\Desktop\visual\zadanie2\zadanie2\Debug\zadanie2.MyForm.resources
^C:\Users\zima\Desktop\visual\zadanie2\zadanie2\zadanie2.vcxproj
C:\Users\zima\Desktop\visual\zadanie2\zadanie2\Debug\zadanie2.MyForm.resources
^C:\Users\zima\Desktop\visual\zadanie2\zadanie2\zadanie2.vcxproj
C:\Users\zima\Desktop\visual\zadanie2\zadanie2\Debug\zadanie2.MyForm.resources
^C:\Users\zima\Desktop\visual\zadanie2\zadanie2\zadanie2.vcxproj
C:\Users\zima\Desktop\visual\zadanie2\zadanie2\Debug\zadanie2.MyForm.resources
^C:\Users\zima\Desktop\visual\zadanie2\zadanie2\zadanie2.vcxproj
C:\Users\zima\Desktop\visual\zadanie2\zadanie2\Debug\zadanie2.MyForm.resources
^C:\Users\zima\Desktop\visual\zadanie2\zadanie2\zadanie2.vcxproj
C:\Users\zima\Desktop\visual\zadanie2\zadanie2\Debug\zadanie2.MyForm.resources
^C:\Users\zima\Desktop\visual\zadanie2\zadanie2\zadanie2.vcxproj
C:\Users\zima\Desktop\visual\zadanie2\zadanie2\Debug\zadanie2.MyForm.resources
^C:\Users\zima\Desktop\visual\zadanie2\zadanie2\zadanie2.vcxproj
C:\Users\zima\Desktop\visual\zadanie2\zadanie2\Debug\zadanie2.MyForm.resources
^C:\Users\zima\Desktop\visual\zadanie2\zadanie2\zadanie2.vcxproj
C:\Users\zima\Desktop\visual\zadanie2\zadanie2\Debug\zadanie2.MyForm.resources
^C:\Users\zima\Desktop\visual\zadanie2\zadanie2\zadanie2.vcxproj
C:\Users\zima\Desktop\visual\zadanie2\zadanie2\Debug\zadanie2.MyForm.resources
^C:\Users\zima\Desktop\visual\zadanie2\zadanie2\zadanie2.vcxproj
C:\Users\zima\Desktop\visual\zadanie2\zadanie2\Debug\zadanie2.MyForm.resources
^C:\Users\zima\Desktop\visual\zadanie2\zadanie2\zadanie2.vcxproj
C:\Users\zima\Desktop\visual\zadanie2\zadanie2\Debug\zadanie2.MyForm.resources
^C:\Users\zima\Desktop\visual\zadanie2\zadanie2\zadanie2.vcxproj
C:\Users\zima\Desktop\visual\zadanie2\zadanie2\Debug\zadanie2.MyForm.resources
^C:\Users\zima\Desktop\visual\zadanie2\zadanie2\zadanie2.vcxproj
C:\Users\zima\Desktop\visual\zadanie2\zadanie2\Debug\zadanie2.MyForm.resources
^C:\Users\zima\Desktop\visual\zadanie2\zadanie2\zadanie2.vcxproj
C:\Users\zima\Desktop\visual\zadanie2\zadanie2\Debug\zadanie2.MyForm.resources
^C:\Users\zima\Desktop\visual\zadanie2\zadanie2\zadanie2.vcxproj
C:\Users\zima\Desktop\visual\zadanie2\zadanie2\Debug\zadanie2.MyForm.resources
^C:\Users\zima\Desktop\visual\zadanie2\zadanie2\zadanie2.vcxproj
C:\Users\zima\Desktop\visual\zadanie2\zadanie2\Debug\zadanie2.MyForm.resources
^C:\Users\zima\Desktop\visual\zadanie2\zadanie2\zadanie2.vcxproj
C:\Users\zima\Desktop\visual\zadanie2\zadanie2\Debug\zadanie2.MyForm.resources
^C:\Users\zima\Desktop\visual\zadanie2\zadanie2\zadanie2.vcxproj
C:\Users\zima\Desktop\visual\zadanie2\zadanie2\Debug\zadanie2.MyForm.resources
^C:\Users\zima\Desktop\visual\zadanie2\zadanie2\zadanie2.vcxproj
C:\Users\zima\Desktop\visual\zadanie2\zadanie2\Debug\zadanie2.MyForm.resources
^C:\Users\zima\Desktop\visual\zadanie2\zadanie2\zadanie2.vcxproj
C:\Users\zima\Desktop\visual\zadanie2\zadanie2\Debug\zadanie2.MyForm.resources
^C:\Users\zima\Desktop\visual\zadanie2\zadanie2\zadanie2.vcxproj
C:\Users\zima\Desktop\visual\zadanie2\zadanie2\Debug\zadanie2.MyForm.resources
^C:\Users\zima\Desktop\visual\zadanie2\zadanie2\zadanie2.vcxproj
C:\Users\zima\Desktop\visual\zadanie2\zadanie2\Debug\zadanie2.MyForm.resources
^C:\Users\zima\Desktop\visual\zadanie2\zadanie2\zadanie2.vcxproj
C:\Users\zima\Desktop\visual\zadanie2\zadanie2\Debug\zadanie2.MyForm.resources
^C:\Users\zima\Desktop\visual\zadanie3\zadanie2\zadanie2.vcxproj
C:\Users\zima\Desktop\visual\zadanie3\zadanie2\Debug\zadanie2.MyForm.resources
^C:\Users\zima\Desktop\visual\zadanie3\zadanie2\zadanie2.vcxproj
C:\Users\zima\Desktop\visual\zadanie3\zadanie2\Debug\zadanie2.MyForm.resources
^C:\Users\zima\Desktop\visual\zadanie3\zadanie2\zadanie2.vcxproj
C:\Users\zima\Desktop\visual\zadanie3\zadanie2\Debug\zadanie2.MyForm.resources
^C:\Users\zima\Desktop\visual\zadanie3\zadanie2\zadanie2.vcxproj
C:\Users\zima\Desktop\visual\zadanie3\zadanie2\Debug\zadanie2.MyForm.resources
^C:\Users\zima\Desktop\visual\zadanie3\zadanie2\zadanie2.vcxproj
C:\Users\zima\Desktop\visual\zadanie3\zadanie2\Debug\zadanie2.MyForm.resources
^C:\Users\zima\Desktop\visual\zadanie3\zadanie2\zadanie2.vcxproj
C:\Users\zima\Desktop\visual\zadanie3\zadanie2\Debug\zadanie2.MyForm.resources
C:\Users\zima\Desktop\visual\zadanie3\zadanie2\Debug\zadanie2.MyForm1.resources
^C:\Users\zima\Desktop\visual\zadanie3\zadanie2\zadanie2.vcxproj
C:\Users\zima\Desktop\visual\zadanie3\zadanie2\Debug\zadanie2.MyForm.resources
C:\Users\zima\Desktop\visual\zadanie3\zadanie2\Debug\zadanie2.MyForm1.resources
^C:\Users\zima\Desktop\visual\zadanie3\zadanie2\zadanie2.vcxproj
C:\Users\zima\Desktop\visual\zadanie3\zadanie2\Debug\zadanie2.MyForm.resources
C:\Users\zima\Desktop\visual\zadanie3\zadanie2\Debug\zadanie2.MyForm1.resources
^C:\Users\zima\Desktop\visual\zadanie3\zadanie2\zadanie2.vcxproj
C:\Users\zima\Desktop\visual\zadanie3\zadanie2\Debug\zadanie2.MyForm.resources
C:\Users\zima\Desktop\visual\zadanie3\zadanie2\Debug\zadanie2.MyForm1.resources
^C:\Users\zima\Desktop\visual\zadanie3\zadanie2\zadanie2.vcxproj
C:\Users\zima\Desktop\visual\zadanie3\zadanie2\Debug\zadanie2.MyForm.resources
C:\Users\zima\Desktop\visual\zadanie3\zadanie2\Debug\zadanie2.MyForm1.resources
^C:\Users\zima\Desktop\visual\zadanie3\zadanie2\zadanie2.vcxproj
C:\Users\zima\Desktop\visual\zadanie3\zadanie2\Debug\zadanie2.MyForm.resources
C:\Users\zima\Desktop\visual\zadanie3\zadanie2\Debug\zadanie2.MyForm1.resources
^C:\Users\zima\Desktop\visual\zadanie3\zadanie2\zadanie2.vcxproj
C:\Users\zima\Desktop\visual\zadanie3\zadanie2\Debug\zadanie2.MyForm.resources
C:\Users\zima\Desktop\visual\zadanie3\zadanie2\Debug\zadanie2.MyForm1.resources
^C:\Users\zima\Desktop\visual\zadanie3\zadanie2\zadanie2.vcxproj
C:\Users\zima\Desktop\visual\zadanie3\zadanie2\Debug\zadanie2.MyForm.resources
C:\Users\zima\Desktop\visual\zadanie3\zadanie2\Debug\zadanie2.MyForm1.resources
^C:\Users\zima\Desktop\visual\zadanie3\zadanie2\zadanie2.vcxproj
C:\Users\zima\Desktop\visual\zadanie3\zadanie2\Debug\zadanie2.MyForm.resources
C:\Users\zima\Desktop\visual\zadanie3\zadanie2\Debug\zadanie2.MyForm1.resources
^C:\Users\zima\Desktop\visual\zadanie3\zadanie2\zadanie2.vcxproj
C:\Users\zima\Desktop\visual\zadanie3\zadanie2\Debug\zadanie2.MyForm.resources
C:\Users\zima\Desktop\visual\zadanie3\zadanie2\Debug\zadanie2.MyForm1.resources
^C:\Users\zima\Desktop\visual\zadanie3\zadanie2\zadanie2.vcxproj
C:\Users\zima\Desktop\visual\zadanie3\zadanie2\Debug\zadanie2.MyForm.resources
C:\Users\zima\Desktop\visual\zadanie3\zadanie2\Debug\zadanie2.MyForm1.resources
^C:\Users\zima\Desktop\visual\zadanie3\zadanie2\zadanie2.vcxproj
C:\Users\zima\Desktop\visual\zadanie3\zadanie2\Debug\zadanie2.MyForm.resources
C:\Users\zima\Desktop\visual\zadanie3\zadanie2\Debug\zadanie2.MyForm1.resources
^C:\Users\zima\Desktop\visual\zadanie3\zadanie2\zadanie2.vcxproj
C:\Users\zima\Desktop\visual\zadanie3\zadanie2\Debug\zadanie2.MyForm.resources
C:\Users\zima\Desktop\visual\zadanie3\zadanie2\Debug\zadanie2.MyForm1.resources
^C:\Users\zima\Desktop\visual\zadanie3\zadanie2\zadanie2.vcxproj
C:\Users\zima\Desktop\visual\zadanie3\zadanie2\Debug\zadanie2.MyForm.resources
C:\Users\zima\Desktop\visual\zadanie3\zadanie2\Debug\zadanie2.MyForm1.resources
^C:\Users\zima\Desktop\visual\zadanie3\zadanie2\zadanie2.vcxproj
C:\Users\zima\Desktop\visual\zadanie3\zadanie2\Debug\zadanie2.MyForm.resources
C:\Users\zima\Desktop\visual\zadanie3\zadanie2\Debug\zadanie2.MyForm1.resources
^C:\Users\zima\Desktop\visual\zadanie3\zadanie2\zadanie2.vcxproj
C:\Users\zima\Desktop\visual\zadanie3\zadanie2\Debug\zadanie2.MyForm.resources
C:\Users\zima\Desktop\visual\zadanie3\zadanie2\Debug\zadanie2.MyForm1.resources
^C:\Users\zima\Desktop\visual\zadanie3\zadanie2\zadanie2.vcxproj
C:\Users\zima\Desktop\visual\zadanie3\zadanie2\Debug\zadanie2.MyForm.resources
C:\Users\zima\Desktop\visual\zadanie3\zadanie2\Debug\zadanie2.MyForm1.resources
^C:\Users\zima\Desktop\visual\zadanie3\zadanie2\zadanie2.vcxproj
C:\Users\zima\Desktop\visual\zadanie3\zadanie2\Debug\zadanie2.MyForm.resources
C:\Users\zima\Desktop\visual\zadanie3\zadanie2\Debug\zadanie2.MyForm1.resources
^C:\Users\zima\Desktop\visual\zadanie3\zadanie2\zadanie2.vcxproj
C:\Users\zima\Desktop\visual\zadanie3\zadanie2\Debug\zadanie2.MyForm.resources
C:\Users\zima\Desktop\visual\zadanie3\zadanie2\Debug\zadanie2.MyForm1.resources
^C:\Users\zima\Desktop\visual\zadanie3\zadanie2\zadanie2.vcxproj
C:\Users\zima\Desktop\visual\zadanie3\zadanie2\Debug\zadanie2.MyForm.resources
C:\Users\zima\Desktop\visual\zadanie3\zadanie2\Debug\zadanie2.MyForm1.resources
^C:\Users\zima\Desktop\visual\zadanie3\zadanie2\zadanie2.vcxproj
C:\Users\zima\Desktop\visual\zadanie3\zadanie2\Debug\zadanie2.MyForm.resources
C:\Users\zima\Desktop\visual\zadanie3\zadanie2\Debug\zadanie2.MyForm1.resources
^C:\Users\zima\Desktop\visual\zadanie3\zadanie2\zadanie2.vcxproj
C:\Users\zima\Desktop\visual\zadanie3\zadanie2\Debug\zadanie2.MyForm.resources
C:\Users\zima\Desktop\visual\zadanie3\zadanie2\Debug\zadanie2.MyForm1.resources
^C:\Users\zima\Desktop\visual\zadanie3\zadanie2\zadanie2.vcxproj
C:\Users\zima\Desktop\visual\zadanie3\zadanie2\Debug\zadanie2.MyForm.resources
C:\Users\zima\Desktop\visual\zadanie3\zadanie2\Debug\zadanie2.MyForm1.resources
^C:\Users\zima\Desktop\visual\zadanie3\zadanie2\zadanie2.vcxproj
C:\Users\zima\Desktop\visual\zadanie3\zadanie2\Debug\zadanie2.MyForm.resources
C:\Users\zima\Desktop\visual\zadanie3\zadanie2\Debug\zadanie2.MyForm1.resources
^C:\Users\zima\Desktop\visual\zadanie3\zadanie2\zadanie2.vcxproj
C:\Users\zima\Desktop\visual\zadanie3\zadanie2\Debug\zadanie2.MyForm.resources
C:\Users\zima\Desktop\visual\zadanie3\zadanie2\Debug\zadanie2.MyForm1.resources
^C:\Users\zima\Desktop\visual\zadanie3\zadanie2\zadanie2.vcxproj
C:\Users\zima\Desktop\visual\zadanie3\zadanie2\Debug\zadanie2.MyForm.resources
C:\Users\zima\Desktop\visual\zadanie3\zadanie2\Debug\zadanie2.MyForm1.resources
^C:\Users\zima\Desktop\visual\zadanie3\zadanie2\zadanie2.vcxproj
C:\Users\zima\Desktop\visual\zadanie3\zadanie2\Debug\zadanie2.MyForm.resources
C:\Users\zima\Desktop\visual\zadanie3\zadanie2\Debug\zadanie2.MyForm1.resources
^C:\Users\zima\Desktop\visual\zadanie3\zadanie2\zadanie2.vcxproj
C:\Users\zima\Desktop\visual\zadanie3\zadanie2\Debug\zadanie2.MyForm.resources
C:\Users\zima\Desktop\visual\zadanie3\zadanie2\Debug\zadanie2.MyForm1.resources
^C:\Users\zima\Desktop\visual\zadanie3\zadanie2\zadanie2.vcxproj
C:\Users\zima\Desktop\visual\zadanie3\zadanie2\Debug\zadanie2.MyForm.resources
C:\Users\zima\Desktop\visual\zadanie3\zadanie2\Debug\zadanie2.MyForm1.resources
^C:\Users\zima\Desktop\visual\zadanie3\zadanie2\zadanie2.vcxproj
C:\Users\zima\Desktop\visual\zadanie3\zadanie2\Debug\zadanie2.MyForm.resources
C:\Users\zima\Desktop\visual\zadanie3\zadanie2\Debug\zadanie2.MyForm1.resources
^C:\Users\zima\Desktop\visual\zadanie3\zadanie2\zadanie2.vcxproj
C:\Users\zima\Desktop\visual\zadanie3\zadanie2\Debug\zadanie2.MyForm.resources
C:\Users\zima\Desktop\visual\zadanie3\zadanie2\Debug\zadanie2.MyForm1.resources
^C:\Users\zima\Desktop\visual\zadanie3\zadanie2\zadanie2.vcxproj
C:\Users\zima\Desktop\visual\zadanie3\zadanie2\Debug\zadanie2.MyForm.resources
C:\Users\zima\Desktop\visual\zadanie3\zadanie2\Debug\zadanie2.MyForm1.resources
^C:\Users\zima\Desktop\visual\zadanie3\zadanie2\zadanie2.vcxproj
C:\Users\zima\Desktop\visual\zadanie3\zadanie2\Debug\zadanie2.MyForm.resources
C:\Users\zima\Desktop\visual\zadanie3\zadanie2\Debug\zadanie2.MyForm1.resources
^C:\Users\zima\Desktop\visual\zadanie3\zadanie2\zadanie2.vcxproj
C:\Users\zima\Desktop\visual\zadanie3\zadanie2\Debug\zadanie2.MyForm.resources
C:\Users\zima\Desktop\visual\zadanie3\zadanie2\Debug\zadanie2.MyForm1.resources
^C:\Users\zima\Desktop\visual\zadanie3\zadanie2\zadanie2.vcxproj
C:\Users\zima\Desktop\visual\zadanie3\zadanie2\Debug\zadanie2.MyForm.resources
C:\Users\zima\Desktop\visual\zadanie3\zadanie2\Debug\zadanie2.MyForm1.resources
^C:\Users\zima\Desktop\visual\zadanie3\zadanie2\zadanie2.vcxproj
C:\Users\zima\Desktop\visual\zadanie3\zadanie2\Debug\zadanie2.MyForm.resources
C:\Users\zima\Desktop\visual\zadanie3\zadanie2\Debug\zadanie2.MyForm1.resources
^C:\Users\zima\Desktop\visual\zadanie3\zadanie2\zadanie2.vcxproj
C:\Users\zima\Desktop\visual\zadanie3\zadanie2\Debug\zadanie2.MyForm.resources
C:\Users\zima\Desktop\visual\zadanie3\zadanie2\Debug\zadanie2.MyForm1.resources
^C:\Users\zima\Desktop\visual\zadanie3\zadanie2\zadanie2.vcxproj
C:\Users\zima\Desktop\visual\zadanie3\zadanie2\Debug\zadanie2.MyForm.resources
C:\Users\zima\Desktop\visual\zadanie3\zadanie2\Debug\zadanie2.MyForm1.resources
^C:\Users\zima\Desktop\visual\zadanie3\zadanie2\zadanie2.vcxproj
C:\Users\zima\Desktop\visual\zadanie3\zadanie2\Debug\zadanie2.MyForm.resources
C:\Users\zima\Desktop\visual\zadanie3\zadanie2\Debug\zadanie2.MyForm1.resources
^C:\Users\zima\Desktop\visual\zadanie3\zadanie2\zadanie2.vcxproj
C:\Users\zima\Desktop\visual\zadanie3\zadanie2\Debug\zadanie2.MyForm.resources
C:\Users\zima\Desktop\visual\zadanie3\zadanie2\Debug\zadanie2.MyForm1.resources
^C:\Users\zima\Desktop\visual\zadanie3\zadanie2\zadanie2.vcxproj
C:\Users\zima\Desktop\visual\zadanie3\zadanie2\Debug\zadanie2.MyForm.resources
C:\Users\zima\Desktop\visual\zadanie3\zadanie2\Debug\zadanie2.MyForm1.resources
^C:\Users\zima\Desktop\visual\zadanie3\zadanie2\zadanie2.vcxproj
C:\Users\zima\Desktop\visual\zadanie3\zadanie2\Debug\zadanie2.MyForm.resources
C:\Users\zima\Desktop\visual\zadanie3\zadanie2\Debug\zadanie2.MyForm1.resources
^C:\Users\zima\Desktop\visual\zadanie3\zadanie2\zadanie2.vcxproj
C:\Users\zima\Desktop\visual\zadanie3\zadanie2\Debug\zadanie2.MyForm.resources
C:\Users\zima\Desktop\visual\zadanie3\zadanie2\Debug\zadanie2.MyForm1.resources
^C:\Users\zima\Desktop\visual\zadanie3\zadanie2\zadanie2.vcxproj
C:\Users\zima\Desktop\visual\zadanie3\zadanie2\Debug\zadanie2.MyForm.resources
C:\Users\zima\Desktop\visual\zadanie3\zadanie2\Debug\zadanie2.MyForm1.resources
^C:\Users\zima\Desktop\visual\zadanie3\zadanie2\zadanie2.vcxproj
C:\Users\zima\Desktop\visual\zadanie3\zadanie2\Debug\zadanie2.MyForm.resources
C:\Users\zima\Desktop\visual\zadanie3\zadanie2\Debug\zadanie2.MyForm1.resources
^C:\Users\zima\Desktop\visual\zadanie3\zadanie2\zadanie2.vcxproj
C:\Users\zima\Desktop\visual\zadanie3\zadanie2\Debug\zadanie2.MyForm.resources
C:\Users\zima\Desktop\visual\zadanie3\zadanie2\Debug\zadanie2.MyForm1.resources
^C:\Users\zima\Desktop\visual\zadanie3\zadanie2\zadanie2.vcxproj
C:\Users\zima\Desktop\visual\zadanie3\zadanie2\Debug\zadanie2.MyForm.resources
C:\Users\zima\Desktop\visual\zadanie3\zadanie2\Debug\zadanie2.MyForm1.resources
^C:\Users\zima\Desktop\visual\zadanie3\zadanie2\zadanie2.vcxproj
C:\Users\zima\Desktop\visual\zadanie3\zadanie2\Debug\zadanie2.MyForm.resources
C:\Users\zima\Desktop\visual\zadanie3\zadanie2\Debug\zadanie2.MyForm1.resources
^C:\Users\zima\Desktop\visual\zadanie3\zadanie2\zadanie2.vcxproj
C:\Users\zima\Desktop\visual\zadanie3\zadanie2\Debug\zadanie2.MyForm.resources
C:\Users\zima\Desktop\visual\zadanie3\zadanie2\Debug\zadanie2.MyForm1.resources
^C:\Users\zima\Desktop\visual\zadanie3\zadanie2\zadanie2.vcxproj
C:\Users\zima\Desktop\visual\zadanie3\zadanie2\Debug\zadanie2.MyForm.resources
C:\Users\zima\Desktop\visual\zadanie3\zadanie2\Debug\zadanie2.MyForm1.resources
^C:\Users\zima\Desktop\visual\zadanie3\zadanie2\zadanie2.vcxproj
C:\Users\zima\Desktop\visual\zadanie3\zadanie2\Debug\zadanie2.MyForm.resources
C:\Users\zima\Desktop\visual\zadanie3\zadanie2\Debug\zadanie2.MyForm1.resources
^C:\Users\zima\Desktop\visual\zadanie3\zadanie2\zadanie2.vcxproj
C:\Users\zima\Desktop\visual\zadanie3\zadanie2\Debug\zadanie2.MyForm.resources
C:\Users\zima\Desktop\visual\zadanie3\zadanie2\Debug\zadanie2.MyForm1.resources
^C:\Users\zima\Desktop\visual\zadanie3\zadanie2\zadanie2.vcxproj
C:\Users\zima\Desktop\visual\zadanie3\zadanie2\Debug\zadanie2.MyForm.resources
C:\Users\zima\Desktop\visual\zadanie3\zadanie2\Debug\zadanie2.MyForm1.resources
^C:\Users\zima\Desktop\visual\zadanie3\zadanie2\zadanie2.vcxproj
C:\Users\zima\Desktop\visual\zadanie3\zadanie2\Debug\zadanie2.MyForm.resources
C:\Users\zima\Desktop\visual\zadanie3\zadanie2\Debug\zadanie2.MyForm1.resources
^C:\Users\zima\Desktop\visual\zadanie3\zadanie2\zadanie2.vcxproj
C:\Users\zima\Desktop\visual\zadanie3\zadanie2\Debug\zadanie2.MyForm.resources
C:\Users\zima\Desktop\visual\zadanie3\zadanie2\Debug\zadanie2.MyForm1.resources
^C:\Users\zima\Desktop\visual\zadanie3\zadanie2\zadanie2.vcxproj
C:\Users\zima\Desktop\visual\zadanie3\zadanie2\Debug\zadanie2.MyForm.resources
C:\Users\zima\Desktop\visual\zadanie3\zadanie2\Debug\zadanie2.MyForm1.resources
^C:\Users\zima\Desktop\visual\zadanie3\zadanie2\zadanie2.vcxproj
C:\Users\zima\Desktop\visual\zadanie3\zadanie2\Debug\zadanie2.MyForm.resources
C:\Users\zima\Desktop\visual\zadanie3\zadanie2\Debug\zadanie2.MyForm1.resources
^C:\Users\zima\Desktop\visual\zadanie3\zadanie2\zadanie2.vcxproj
C:\Users\zima\Desktop\visual\zadanie3\zadanie2\Debug\zadanie2.MyForm.resources
C:\Users\zima\Desktop\visual\zadanie3\zadanie2\Debug\zadanie2.MyForm1.resources
^C:\Users\zima\Desktop\visual\zadanie3\zadanie2\zadanie2.vcxproj
C:\Users\zima\Desktop\visual\zadanie3\zadanie2\Debug\zadanie2.MyForm.resources
C:\Users\zima\Desktop\visual\zadanie3\zadanie2\Debug\zadanie2.MyForm1.resources
^C:\Users\zima\Desktop\visual\zadanie3\zadanie2\zadanie2.vcxproj
C:\Users\zima\Desktop\visual\zadanie3\zadanie2\Debug\zadanie2.MyForm.resources
C:\Users\zima\Desktop\visual\zadanie3\zadanie2\Debug\zadanie2.MyForm1.resources
^C:\Users\zima\Desktop\visual\zadanie3\zadanie2\zadanie2.vcxproj
C:\Users\zima\Desktop\visual\zadanie3\zadanie2\Debug\zadanie2.MyForm.resources
C:\Users\zima\Desktop\visual\zadanie3\zadanie2\Debug\zadanie2.MyForm1.resources
^C:\Users\zima\Desktop\visual\zadanie3\zadanie2\zadanie2.vcxproj
C:\Users\zima\Desktop\visual\zadanie3\zadanie2\Debug\zadanie2.MyForm.resources
C:\Users\zima\Desktop\visual\zadanie3\zadanie2\Debug\zadanie2.MyForm1.resources
^C:\Users\zima\Desktop\visual\zadanie3\zadanie2\zadanie2.vcxproj
C:\Users\zima\Desktop\visual\zadanie3\zadanie2\Debug\zadanie2.MyForm.resources
C:\Users\zima\Desktop\visual\zadanie3\zadanie2\Debug\zadanie2.MyForm1.resources
^C:\Users\zima\Desktop\visual\zadanie3\zadanie2\zadanie2.vcxproj
C:\Users\zima\Desktop\visual\zadanie3\zadanie2\Debug\zadanie2.MyForm.resources
C:\Users\zima\Desktop\visual\zadanie3\zadanie2\Debug\zadanie2.MyForm1.resources
^C:\Users\zima\Desktop\visual\zadanie3\zadanie2\zadanie2.vcxproj
C:\Users\zima\Desktop\visual\zadanie3\zadanie2\Debug\zadanie2.MyForm.resources
C:\Users\zima\Desktop\visual\zadanie3\zadanie2\Debug\zadanie2.MyForm1.resources
^C:\Users\zima\Desktop\visual\zadanie3\zadanie2\zadanie2.vcxproj
C:\Users\zima\Desktop\visual\zadanie3\zadanie2\Debug\zadanie2.MyForm.resources
C:\Users\zima\Desktop\visual\zadanie3\zadanie2\Debug\zadanie2.MyForm1.resources
^C:\Users\zima\Desktop\visual\zadanie3\zadanie2\zadanie2.vcxproj
C:\Users\zima\Desktop\visual\zadanie3\zadanie2\Debug\zadanie2.MyForm.resources
C:\Users\zima\Desktop\visual\zadanie3\zadanie2\Debug\zadanie2.MyForm1.resources
^C:\Users\zima\Desktop\visual\zadanie3\zadanie2\zadanie2.vcxproj
C:\Users\zima\Desktop\visual\zadanie3\zadanie2\Debug\zadanie2.MyForm.resources
C:\Users\zima\Desktop\visual\zadanie3\zadanie2\Debug\zadanie2.MyForm1.resources
^C:\Users\zima\Desktop\visual\zadanie3\zadanie2\zadanie2.vcxproj
C:\Users\zima\Desktop\visual\zadanie3\zadanie2\Debug\zadanie2.MyForm.resources
C:\Users\zima\Desktop\visual\zadanie3\zadanie2\Debug\zadanie2.MyForm1.resources
^C:\Users\zima\Desktop\visual\zadanie3\zadanie2\zadanie2.vcxproj
C:\Users\zima\Desktop\visual\zadanie3\zadanie2\Debug\zadanie2.MyForm.resources
C:\Users\zima\Desktop\visual\zadanie3\zadanie2\Debug\zadanie2.MyForm1.resources
^C:\Users\zima\Desktop\visual\zadanie3\zadanie2\zadanie2.vcxproj
C:\Users\zima\Desktop\visual\zadanie3\zadanie2\Debug\zadanie2.MyForm.resources
C:\Users\zima\Desktop\visual\zadanie3\zadanie2\Debug\zadanie2.MyForm1.resources
^C:\Users\zima\Desktop\visual\zadanie3\zadanie2\zadanie2.vcxproj
C:\Users\zima\Desktop\visual\zadanie3\zadanie2\Debug\zadanie2.MyForm.resources
C:\Users\zima\Desktop\visual\zadanie3\zadanie2\Debug\zadanie2.MyForm1.resources
